^R:\PROJECTS\CPP\CPPSTUDYPROJECT\RELEASE\ALGORITHMS.OBJ|R:\PROJECTS\CPP\CPPSTUDYPROJECT\RELEASE\ANY.OBJ|R:\PROJECTS\CPP\CPPSTUDYPROJECT\RELEASE\APPLICATIONMAIN.OBJ|R:\PROJECTS\CPP\CPPSTUDYPROJECT\RELEASE\ARRAYS.OBJ|R:\PROJECTS\CPP\CPPSTUDYPROJECT\RELEASE\ASSERTS.OBJ|R:\PROJECTS\CPP\CPPSTUDYPROJECT\RELEASE\ATOMIC.OBJ|R:\PROJECTS\CPP\CPPSTUDYPROJECT\RELEASE\BITSET.OBJ|R:\PROJECTS\CPP\CPPSTUDYPROJECT\RELEASE\BITWISEOPERATION.OBJ|R:\PROJECTS\CPP\CPPSTUDYPROJECT\RELEASE\BYTE.OBJ|R:\PROJECTS\CPP\CPPSTUDYPROJECT\RELEASE\CHRONO.OBJ|R:\PROJECTS\CPP\CPPSTUDYPROJECT\RELEASE\CONCEPTS.OBJ|R:\PROJECTS\CPP\CPPSTUDYPROJECT\RELEASE\CONSOLEINOUT.OBJ|R:\PROJECTS\CPP\CPPSTUDYPROJECT\RELEASE\CONSTCONSTEXPRMUTABLE.OBJ|R:\PROJECTS\CPP\CPPSTUDYPROJECT\RELEASE\COPYELISION.OBJ|R:\PROJECTS\CPP\CPPSTUDYPROJECT\RELEASE\ENUMTESTS.OBJ|R:\PROJECTS\CPP\CPPSTUDYPROJECT\RELEASE\EXCEPTIONS.OBJ|R:\PROJECTS\CPP\CPPSTUDYPROJECT\RELEASE\FILESSTREAMS.OBJ|R:\PROJECTS\CPP\CPPSTUDYPROJECT\RELEASE\FILESYSTEMTESTS.OBJ|R:\PROJECTS\CPP\CPPSTUDYPROJECT\RELEASE\FUNCTIONOBJECTS.OBJ|R:\PROJECTS\CPP\CPPSTUDYPROJECT\RELEASE\INITIALIZATION.OBJ|R:\PROJECTS\CPP\CPPSTUDYPROJECT\RELEASE\INITIALIZERLIST.OBJ|R:\PROJECTS\CPP\CPPSTUDYPROJECT\RELEASE\INLINEVARIABLES.OBJ|R:\PROJECTS\CPP\CPPSTUDYPROJECT\RELEASE\INTEGER.OBJ|R:\PROJECTS\CPP\CPPSTUDYPROJECT\RELEASE\ITERATORTESTS.OBJ|R:\PROJECTS\CPP\CPPSTUDYPROJECT\RELEASE\LITERALS.OBJ|R:\PROJECTS\CPP\CPPSTUDYPROJECT\RELEASE\LOCALE.OBJ|R:\PROJECTS\CPP\CPPSTUDYPROJECT\RELEASE\MATH.OBJ|R:\PROJECTS\CPP\CPPSTUDYPROJECT\RELEASE\MEMORY.OBJ|R:\PROJECTS\CPP\CPPSTUDYPROJECT\RELEASE\MOVESEMANTICS_RULEOFFIVE.OBJ|R:\PROJECTS\CPP\CPPSTUDYPROJECT\RELEASE\NUMERICLIMITS.OBJ|R:\PROJECTS\CPP\CPPSTUDYPROJECT\RELEASE\OBJECTORIENTEDPROGRAMMING.OBJ|R:\PROJECTS\CPP\CPPSTUDYPROJECT\RELEASE\OPTIONALTESTS.OBJ|R:\PROJECTS\CPP\CPPSTUDYPROJECT\RELEASE\POLYMORPHICMEMORYRESOURCES.OBJ|R:\PROJECTS\CPP\CPPSTUDYPROJECT\RELEASE\RANGES.OBJ|R:\PROJECTS\CPP\CPPSTUDYPROJECT\RELEASE\REFERENCEWRAPPERTESTS.OBJ|R:\PROJECTS\CPP\CPPSTUDYPROJECT\RELEASE\SHAREDPTRTESTS.OBJ|R:\PROJECTS\CPP\CPPSTUDYPROJECT\RELEASE\SPAN.OBJ|R:\PROJECTS\CPP\CPPSTUDYPROJECT\RELEASE\STREAMS.OBJ|R:\PROJECTS\CPP\CPPSTUDYPROJECT\RELEASE\STRING.OBJ|R:\PROJECTS\CPP\CPPSTUDYPROJECT\RELEASE\STRINGSTREAMTESTS.OBJ|R:\PROJECTS\CPP\CPPSTUDYPROJECT\RELEASE\STRINGVIEWTESTS.OBJ|R:\PROJECTS\CPP\CPPSTUDYPROJECT\RELEASE\STRUCTUREDBINDING.OBJ|R:\PROJECTS\CPP\CPPSTUDYPROJECT\RELEASE\TEMPLATES.OBJ|R:\PROJECTS\CPP\CPPSTUDYPROJECT\RELEASE\TUPLETESTS.OBJ|R:\PROJECTS\CPP\CPPSTUDYPROJECT\RELEASE\TYPECASTTESTS.OBJ|R:\PROJECTS\CPP\CPPSTUDYPROJECT\RELEASE\TYPETRAITS.OBJ|R:\PROJECTS\CPP\CPPSTUDYPROJECT\RELEASE\UNIQUEPTRTESTS.OBJ|R:\PROJECTS\CPP\CPPSTUDYPROJECT\RELEASE\UTILITIES.OBJ|R:\PROJECTS\CPP\CPPSTUDYPROJECT\RELEASE\VARIANTTESTS.OBJ|R:\PROJECTS\CPP\CPPSTUDYPROJECT\RELEASE\WEAKPTRTESTS.OBJ
R:\PROJECTS\CPP\CPPSTUDYPROJECT\RELEASE\CPPSTUDYPROJECT.EXE
R:\PROJECTS\CPP\CPPSTUDYPROJECT\RELEASE\CPPSTUDYPROJECT.PDB
